<?xml version="1.0" encoding="UTF-8" standalone="no"?>
<svg width="131px" height="65px" viewBox="0 0 131 65" version="1.1" xmlns="http://www.w3.org/2000/svg" xmlns:xlink="http://www.w3.org/1999/xlink">
    <!-- Generator: Sketch 48.2 (47327) - http://www.bohemiancoding.com/sketch -->
    <title>Group 45 Copy 3</title>
    <desc>Created with Sketch.</desc>
    <defs>
        <polygon id="path-1" points="0.999572994 0 130.764179 0 130.528785 70 0.764179104 70"></polygon>
        <linearGradient x1="0%" y1="100%" x2="101.629167%" y2="10.47778%" id="linearGradient-3">
            <stop stop-color="#FF5C5C" offset="0%"></stop>
            <stop stop-color="#5300FF" offset="100%"></stop>
        </linearGradient>
    </defs>
    <g id="Monoreto" stroke="none" stroke-width="1" fill="none" fill-rule="evenodd">
        <g id="Group-45-Copy-3" transform="translate(0.000000, -6.000000)">
            <g id="Group-41">
                <mask id="mask-2" fill="white">
                    <use xlink:href="#path-1"></use>
                </mask>
                <g id="Mask"></g>
                <path d="M-68,28.5848934 C-50.1119381,10.5442483 -40.8768846,31.5880427 -21.8240525,32.3936065 C-2.77122031,33.1991704 -9.55749113,23.0870465 -0.0991482177,25.0338082 C9.3591947,26.9805698 8.9606356,55.9721619 24.599414,55.9427123 C40.2381923,55.9132627 41.0580859,35.7140973 57.0290429,38.8570487 C73,42 62.9917937,20.137229 83,25.0338082 C103.008206,29.9303873 108.849824,39.3500086 130.764179,48.9975601 L130.764179,70.2750184 L-68,70.2750184 L-68,28.5848934 Z" id="Path-3" fill="url(#linearGradient-3)" mask="url(#mask-2)"></path>
            </g>
            <g id="Group-6-Copy" transform="translate(66.500000, 37.000000) scale(1, -1) translate(-66.500000, -37.000000) translate(19.000000, 4.000000)" stroke="#FFFFFF" stroke-dasharray="2.023952095808383,4.047904191616767" stroke-linecap="square" stroke-width="1.01197605">
                <g id="Group-44">
                    <path d="M0.505988024,0.463228473 L0.505988024,65.3218319" id="Line"></path>
                    <path d="M23.7814371,0.463228473 L23.7814371,65.3218319" id="Line-Copy"></path>
                    <path d="M47.0568862,0.463228473 L47.0568862,65.3218319" id="Line-Copy-2"></path>
                    <path d="M70.3323353,0.463228473 L70.3323353,65.3218319" id="Line-Copy-3"></path>
                    <path d="M93.6077844,0.463228473 L93.6077844,65.3218319" id="Line-Copy-4"></path>
                </g>
            </g>
        </g>
    </g>
</svg>