<svg xmlns="http://www.w3.org/2000/svg" width="91" height="15" viewBox="0 0 91 15">
    <g fill="none" fill-rule="evenodd" stroke="#000000">
        <path fill="#FFF" d="M83.29 11.25l-4.409 2.318.842-4.91-3.566-3.476 4.928-.716L83.29 0l2.205 4.466 4.928.716-3.566 3.477.842 4.909zM64.342 11.25l-4.408 2.318.842-4.91-3.567-3.476 4.929-.716L64.342 0l2.204 4.466 4.929.716-3.566 3.477.841 4.909zM45.395 11.25l-4.409 2.318.842-4.91-3.566-3.476 4.929-.716L45.395 0l2.204 4.466 4.929.716L48.96 8.66l.842 4.909z"/>
        <path fill="#000" d="M26.447 11.25l-4.408 2.318.842-4.91-3.567-3.476 4.93-.716L26.446 0l2.205 4.466 4.928.716-3.566 3.477.842 4.909zM7.5 11.25l-4.408 2.318.842-4.91L.367 5.183l4.929-.716L7.5 0l2.204 4.466 4.929.716-3.567 3.477.842 4.909z"/>
    </g>
</svg>
