<svg xmlns="http://www.w3.org/2000/svg" xmlns:xlink="http://www.w3.org/1999/xlink" width="82" height="82" viewBox="0 0 82 82">
    <defs>
        <radialGradient id="b" cx="84.308%" cy="17.918%" r="97.24%" fx="84.308%" fy="17.918%">
            <stop offset="0%" stop-color="#FF5C5C"/>
            <stop offset="100%" stop-color="#5300FF"/>
        </radialGradient>
        <circle id="a" cx="57" cy="57" r="41"/>
    </defs>
    <use fill="url(#b)" fill-rule="evenodd" transform="translate(-16 -16)" xlink:href="#a"/>
</svg>
